{
  "name": "tariffs",
  "country-code": "UK",
  "description": "Retail tariff details",
  "type": "facts",
  "version": "1.0.8",
  "no_of_columns" : 55,

  "formats" : ["%d-%m-%Y"],
  "columns": [
    {
      "name": "date",
      "to": "date",
      "type_to": "date",
      "type": "string",
      "nullable": false,
      "format": "",
      "optional": false,
      "pii": "nc",
      "length": 10,
      "description": "Snapshot date of when the data applies - this should be the first day of the new cap charge period.",
      "enum": []
    },
    {
      "name": "tariff_uid",
      "to": "tariff_uid",
      "type_to": "alphanum",
      "type": "string",
      "nullable": false,
      "format": "",
      "optional": false,
      "pii": "nc",
      "length": 64,
      "description": "A code created by the supplier to uniquely identify the tariff.",
       "enum": []
    },
    {
      "name": "tariff_advertised_name",
      "to": "tariff_advertised_name",
      "type_to": "alphanum",
      "type": "string",
      "nullable": false,
      "format": "",
      "optional": false,
      "pii": "nc",
      "length": 250,
      "description": "The name the tariff is advertised and sold as, as defined in the supply licence.",
      "enum": []
    },
    {
      "name": "region",
      "to": "region",
      "type_to": "string",
      "type": "string",
      "nullable": false,
      "format": "",
      "optional": false,
      "pii": "nc",
      "length": 26,
      "enum": ["east_england", "east_midlands", "london", "merseyside_and_north_wales", "midlands", "north_east", "north_scotland", "north_west", "south_east", "south_scotland", "south_wales", "south_west", "southern", "yorkshire"],
      "description": "For both electricity and gas, this is the region in which the tariff is offered."
    },
    {
      "name": "meter_type",
      "to": "meter_type",
      "type_to": "string",
      "type": "string",
      "nullable": false,
      "format": "",
      "optional": false,
      "pii": "nc",
      "length": 1,
      "enum": ["U", "E", "T", "S", "D", "O"],
      "description": "The type of meter the tariff is designed for."
    },
    {
      "name": "tariff_type",
      "to": "tariff_type",
      "type_to": "string",
      "type": "string",
      "nullable": false,
      "format": "",
      "optional": false,
      "pii": "nc",
      "enum": ["F", "D", "N", "S"],
      "description": "The category the tariff falls under based on the characteristics of the tariff."
    },
    {
      "name": "tariff_fuel_type",
      "to": "tariff_fuel_type",
      "type_to": "string",
      "type": "string",
      "nullable": false,
      "format": "",
      "optional": false,
      "pii": "nc",
      "length": 1,
      "enum": ["G", "E"],
      "description": "The type of fuel the tariff is designed for."
    },
    {
      "name": "payment_method",
      "to": "payment_method",
      "type_to": "string",
      "type": "string",
      "nullable": false,
      "format": "",
      "optional": false,
      "pii": "nc",
      "length": 1,
      "enum": ["D", "S", "P", "X", "O"],
      "description": "The required payment method for this tariff."
    },
    {
      "name": "online_account",
      "to": "online_account",
      "type_to": "boolean",
      "type": "string",
      "nullable": false,
      "format": "",
      "optional": false,
      "pii": "nc",
      "length": 1,
      "enum": [true, false],
      "description": "Y and N will get converted to true and false after loading data file."
    },
    {
      "name": "paperless_billing",
      "to": "paperless_billing",
      "type_to": "boolean",
      "type": "string",
      "nullable": false,
      "format": "",
      "optional": false,
      "pii": "nc",
      "length": 1,
      "enum": [true, false],
      "description": "Y and N will get converted to true and false after loading data file."
    },
    {
      "name": "renewable_percentage",
      "to": "renewable_percentage",
      "type_to": "double",
      "type": "string",
      "nullable": false,
      "format": "",
      "optional": false,
      "pii": "nc",
      "length": 5,
      "enum": [],
      "description": "The percentage of energy generation for the tariff which is from renewable sources per fuel. Range from 0 to 100."
    },
    {
      "name": "default_3_years",
      "to": "default_3_years",
      "type_to": "boolean",
      "type": "string",
      "nullable": false,
      "format": "",
      "optional": false,
      "pii": "nc",
      "length": 1,
      "enum": [true, false],
      "description": "Y and N will get converted to true and false after loading data file."
    },
    {
      "name": "number_of_customer_accounts",
      "to": "number_of_customer_accounts",
      "type_to": "double",
      "type": "string",
      "nullable": false,
      "format": "",
      "optional": false,
      "pii": "nc",
      "length": 8,
      "enum": [],
      "description": "Number of domestic customer accounts on each permutation of each tariff on the snapshot date."
    },
    {
      "name": "is_tou_tariff",
      "to": "is_tou_tariff",
      "type_to": "boolean",
      "type": "string",
      "nullable": false,
      "format": "",
      "optional": false,
      "pii": "nc",
      "length": 1,
      "enum": [true, false],
      "description": "Y and N will get converted to true and false after loading data file."
    },
    {
      "name": "is_ev_tariff",
      "to": "is_ev_tariff",
      "type_to": "boolean",
      "type": "string",
      "nullable": false,
      "format": "",
      "optional": false,
      "pii": "nc",
      "length": 1,
      "enum": [true, false],
      "description": "Y and N will get converted to true and false after loading data file."
    },
    {
      "name": "is_multi_reg_tariff",
      "to": "is_multi_reg_tariff",
      "type_to": "boolean",
      "type": "string",
      "nullable": false,
      "format": "",
      "optional": false,
      "pii": "nc",
      "length": 1,
      "enum": [true, false],
      "description": "Y and N will get converted to true and false after loading data file."
    },
    {
      "name": "is_multi_tier_tariff",
      "to": "is_multi_tier_tariff",
      "type_to": "boolean",
      "type": "string",
      "nullable": false,
      "format": "",
      "optional": false,
      "pii": "nc",
      "length": 1,
      "enum": [true, false],
      "description": "Y and N will get converted to true and false after loading data file."
    },
    {
      "name": "standing_charge",
      "to": "standing_charge",
      "type_to": "double",
      "type": "string",
      "nullable": false,
      "format": "",
      "optional": false,
      "pii": "nc",
      "length": 4,
      "enum": [],
      "description": "The fixed daily charge of the tariff in pence/day excluding VAT."
    },
    {
      "name": "single_rate_unit_rate",
      "to": "single_rate_unit_rate",
      "type_to": "double",
      "type": "string",
      "nullable": true,
      "format": "",
      "optional": false,
      "default-value" : "NULL",
      "pii": "nc",
      "length": 4,
      "enum": [],
      "description": "The unit rate for a single-rate tariff in pence/kWh excluding VAT."
    },
    {
      "name": "multi_tier_volume_break_1",
      "to": "multi_tier_volume_break_1",
      "type_to": "double",
      "type": "string",
      "nullable": true,
      "format": "",
      "optional": false,
      "default-value": "NULL",
      "pii": "nc",
      "length": 6,
      "enum": [],
      "description": "The volume at which the unit rate changes."
    },
    {
      "name": "multi_tier_volume_break_2",
      "to": "multi_tier_volume_break_2",
      "type_to": "double",
      "type": "string",
      "nullable": true,
      "format": "",
      "optional": false,
      "default-value": "NULL",
      "pii": "nc",
      "length": 6,
      "enum": [],
      "description": "The volume at which the unit rate changes."
    },
    {
      "name": "multi_tier_volume_break_3",
      "to": "multi_tier_volume_break_3",
      "type_to": "double",
      "type": "string",
      "nullable": true,
      "format": "",
      "optional": false,
      "default-value": "NULL",
      "pii": "nc",
      "length": 6,
      "enum": [],
      "description": "The volume at which the unit rate changes."
    },
    {
      "name": "multi_tier_volume_break_4",
      "to": "multi_tier_volume_break_4",
      "type_to": "double",
      "type": "string",
      "nullable": true,
      "format": "",
      "optional": false,
      "default-value": "NULL",
      "pii": "nc",
      "length": 6,
      "enum": [],
      "description": "The volume at which the unit rate changes."
    },
    {
      "name": "multi_tier_volume_break_1_uom",
      "to": "multi_tier_volume_break_1_uom",
      "type_to": "string",
      "type": "string",
      "nullable": true,
      "format": "",
      "optional": false,
      "default-value": "NULL",
      "pii": "nc",
      "length": 100,
      "enum": [],
      "description": "The unit of measurement used to measure the volume used before the unit rate changes."
    },
    {
      "name": "multi_tier_volume_break_2_uom",
      "to": "multi_tier_volume_break_2_uom",
      "type_to": "string",
      "type": "string",
      "nullable": true,
      "format": "",
      "optional": false,
      "default-value": "NULL",
      "pii": "nc",
      "length": 100,
      "enum": [],
      "description": "The unit of measurement used to measure the volume used before the unit rate changes."
    },
    {
      "name": "multi_tier_volume_break_3_uom",
      "to": "multi_tier_volume_break_3_uom",
      "type_to": "string",
      "type": "string",
      "nullable": true,
      "format": "",
      "optional": false,
      "default-value": "NULL",
      "pii": "nc",
      "length": 100,
      "enum": [],
      "description": "The unit of measurement used to measure the volume used before the unit rate changes."

    },
    {
      "name": "multi_tier_volume_break_4_uom",
      "to": "multi_tier_volume_break_4_uom",
      "type_to": "string",
      "type": "string",
      "nullable": true,
      "format": "",
      "optional": false,
      "default-value": "NULL",
      "pii": "nc",
      "length": 100,
      "enum": [],
      "description": "The unit of measurement used to measure the volume used before the unit rate changes."
    },
    {
      "name": "multi_tier_unit_rate_1",
      "to": "multi_tier_unit_rate_1",
      "type_to": "double",
      "type": "string",
      "nullable": true,
      "format": "",
      "optional": false,
      "default-value": "NULL",
      "pii": "nc",
      "length": 4,
      "enum": [],
      "description": "The multi-tier unit rate up to the first volume break in pence/kWh excluding VAT."
    },
    {
      "name": "multi_tier_unit_rate_2",
      "to": "multi_tier_unit_rate_2",
      "type_to": "double",
      "type": "string",
      "nullable": true,
      "format": "",
      "optional": false,
      "default-value": "NULL",
      "pii": "nc",
      "length": 4,
      "enum": [],
      "description": "The multi-tier unit rate up to the second volume break in pence/kWh excluding VAT."
    },
    {
      "name": "multi_tier_unit_rate_3",
      "to": "multi_tier_unit_rate_3",
      "type_to": "double",
      "type": "string",
      "nullable": true,
      "format": "",
      "optional": false,
      "default-value": "NULL",
      "pii": "nc",
      "length": 4,
      "enum": [],
      "description": "The multi-tier unit rate up to the third volume break in pence/kWh excluding VAT."
    },
    {
      "name": "multi_tier_unit_rate_4",
      "to": "multi_tier_unit_rate_4",
      "type_to": "double",
      "type": "string",
      "nullable": true,
      "format": "",
      "optional": false,
      "default-value": "NULL",
      "pii": "nc",
      "length": 4,
      "enum": [],
      "description": "The multi-tier unit rate up to the fourth volume break in pence/kWh excluding VAT."
    },
    {
      "name": "multi_tier_unit_rate_5",
      "to": "multi_tier_unit_rate_5",
      "type_to": "double",
      "type": "string",
      "nullable": true,
      "format": "",
      "optional": false,
      "default-value": "NULL",
      "pii": "nc",
      "length": 4,
      "enum": [],
      "description": "The multi-tier unit rate after the fourth volume break in pence/kWh excluding VAT."
    },    
    {
      "name": "multi_tier_unit_rate_op",
      "to": "multi_tier_unit_rate_op",
      "type_to": "double",
      "type": "string",
      "nullable": true,
      "format": "",
      "optional": false,
      "default-value": "NULL",
      "pii": "nc",
      "length": 4,
      "enum": [],
      "description": "If a multi-tier tariff, the first unit rate during off-peak hours in pence/kWh excluding VAT."
    },
    {
      "name": "multi_tier_unit_rate_op_2",
      "to": "multi_tier_unit_rate_op_2",
      "type_to": "double",
      "type": "string",
      "nullable": true,
      "format": "",
      "optional": false,
      "default-value": "NULL",
      "pii": "nc",
      "length": 4,
      "enum": [],
      "description": "If a multi-tier tariff, the second unit rate during off-peak hours in pence/kWh excluding VAT."
    },
    {
      "name": "multi_tier_unit_rate_op_3",
      "to": "multi_tier_unit_rate_op_3",
      "type_to": "double",
      "type": "string",
      "nullable": true,
      "format": "",
      "optional": false,
      "default-value": "NULL",
      "pii": "nc",
      "length": 4,
      "enum": [],
      "description": "If a multi-tier tariff, the third unit rate during off-peak hours in pence/kWh excluding VAT."
    },
    {
      "name": "assumed_consumption_split_1",
      "to": "assumed_consumption_split_1",
      "type_to": "double",
      "type": "string",
      "nullable": true,
      "format": "",
      "optional": false,
      "default-value": "NULL",
      "pii": "nc",
      "length": 4,
      "enum": [],
      "description": "For all multi-register tariffs. The proportion of annual consumption that the the first unit rate applies."
    },
    {
      "name": "assumed_consumption_split_2",
      "to": "assumed_consumption_split_2",
      "type_to": "double",
      "type": "string",
      "nullable": true,
      "format": "",
      "optional": false,
      "default-value": "NULL",
      "pii": "nc",
      "length": 4,
      "enum": [],
      "description": "For all multi-register tariffs. The proportion of annual consumption that the the second unit rate applies."
    },
    {
      "name": "assumed_consumption_split_3",
      "to": "assumed_consumption_split_3",
      "type_to": "double",
      "type": "string",
      "nullable": true,
      "format": "",
      "optional": false,
      "default-value": "NULL",
      "pii": "nc",
      "length": 4,
      "enum": [],
      "description": "For all multi-register tariffs. The proportion of annual consumption that the the third unit rate applies."
    },
    {
      "name": "assumed_consumption_split_4",
      "to": "assumed_consumption_split_4",
      "type_to": "double",
      "type": "string",
      "nullable": true,
      "format": "",
      "optional": false,
      "default-value": "NULL",
      "pii": "nc",
      "length": 4,
      "enum": [],
      "description": "For all multi-register tariffs. The proportion of annual consumption that the the fourth unit rate applies."
    },
    {
      "name": "assumed_consumption_split_5",
      "to": "assumed_consumption_split_5",
      "type_to": "double",
      "type": "string",
      "nullable": true,
      "format": "",
      "optional": false,
      "default-value": "NULL",
      "pii": "nc",
      "length": 4,
      "description": "For all multi-register tariffs. The proportion of annual consumption that the the fifth unit rate applies.",
      "enum": []
    },
    {
      "name": "multi_reg_period_1_unit_rate",
      "to": "multi_reg_period_1_unit_rate",
      "type_to": "double",
      "type": "string",
      "nullable": true,
      "format": "",
      "optional": false,
      "default-value": "NULL",
      "pii": "nc",
      "length": 4,
      "enum": [],
      "description": "For all  multi-register tariffs, the period 1 unit rate in pence/kWh excluding VAT."
    },
    {
      "name": "multi_reg_period_2_unit_rate",
      "to": "multi_reg_period_2_unit_rate",
      "type_to": "double",
      "type": "string",
      "nullable": true,
      "format": "",
      "optional": false,
      "default-value": "NULL",
      "pii": "nc",
      "length": 4,
      "enum": [],
      "description": "For all  multi-register tariffs, the period 2 unit rate in pence/kWh excluding VAT."
    },
    {
      "name": "multi_reg_period_3_unit_rate",
      "to": "multi_reg_period_3_unit_rate",
      "type_to": "double",
      "type": "string",
      "nullable": true,
      "format": "",
      "optional": false,
      "default-value": "NULL",
      "pii": "nc",
      "length": 4,
      "enum": [],
      "description": "For all  multi-register tariffs, the period 3 unit rate in pence/kWh excluding VAT."
    },
    {
      "name": "multi_reg_period_4_unit_rate",
      "to": "multi_reg_period_4_unit_rate",
      "type_to": "double",
      "type": "string",
      "nullable": true,
      "format": "",
      "optional": false,
      "default-value": "NULL",
      "pii": "nc",
      "length": 4,
      "enum": [],
      "description": "For all  multi-register tariffs, the period 4 unit rate in pence/kWh excluding VAT."
    },
    {
      "name": "multi_reg_period_5_unit_rate",
      "to": "multi_reg_period_5_unit_rate",
      "type_to": "double",
      "type": "string",
      "nullable": true,
      "format": "",
      "optional": false,
      "default-value": "NULL",
      "pii": "nc",
      "length": 4,
      "enum": [],
      "description": "For all  multi-register tariffs, the period 5 unit rate in pence/kWh excluding VAT."
    },
    {
      "name": "dual_fuel_discount",
      "to": "dual_fuel_discount",
      "type_to": "double",
      "type": "string",
      "nullable": true,
      "format": "",
      "optional": false,
      "default-value": "NULL",
      "pii": "nc",
      "length": 5,
      "enum": [],
      "description": "The monetary amount of the lump sum discount per fuel per year in pounds and pence excluding VAT."
    },
    {
      "name": "online_discount",
      "to": "online_discount",
      "type_to": "double",
      "type": "string",
      "nullable": true,
      "format": "",
      "optional": false,
      "default-value": "NULL",
      "pii": "nc",
      "length": 5,
      "enum": [],
      "description": "The monetary amount of the lump sum discount per fuel per year in pounds and pence excluding VAT."
    },
    {
      "name": "termination_fee",
      "to": "termination_fee",
      "type_to": "double",
      "type": "string",
      "nullable": true,
      "format": "",
      "optional": false,
      "default-value": "NULL",
      "pii": "nc",
      "length": 6,
      "enum": [],
      "description": "As defined in SLC 1. The termination fee per fuel in pounds and pence per fuel excluding VAT."
    },
    {
      "name": "fix_length",
      "to": "fix_length",
      "type_to": "double",
      "type": "double",
      "nullable": true,
      "format": "",
      "optional": false,
      "default-value": "NULL",
      "pii": "nc",
      "length": 3,
      "enum": [],
      "description": "Length for the fixed tariffs in months."
    },
    {
      "name": "tariff_offer_date",
      "to": "tariff_offer_date",
      "type_to": "date",
      "type": "string",
      "nullable": true,
      "format": "",
      "optional": false,
      "default-value": "NULL",
      "pii": "nc",
      "length": 10,
      "enum": [],
      "description": "The date in month and year when the tariff was first offered to customers. Date format must be in DD/MM/YYYY."
    },
    {
      "name": "tariff_withdraw_date",
      "to": "tariff_withdraw_date",
      "type_to": "date",
      "type": "string",
      "nullable": true,
      "format": "",
      "optional": false,
      "default-value": "NULL",
      "pii": "nc",
      "length": 10,
      "enum": [],
      "description": "The date in month and year when the tariff was withdrawn from being offered to customers. Date format must be in DD/MM/YYYY."
    },
    {
      "name": "tariff_expiry_date",
      "to": "tariff_expiry_date",
      "type_to": "date",
      "type": "string",
      "nullable": true,
      "format": "",
      "optional": false,
      "default-value": "NULL",
      "pii": "nc",
      "length": 10,
      "enum": [],
      "description": "The date when the tariff contract expires/is due to expire. Date format must be in DD/MM/YYYY."
    },
    {
      "name": "tariff_change_date",
      "to": "tariff_change_date",
      "type_to": "date",
      "type": "string",
      "nullable": true,
      "format": "",
      "optional": false,
      "default-value": "NULL",
      "pii": "nc",
      "length": 10,
      "enum": [],
      "description": "The date in month and year when the price components only of a tariff changed. Date format must be in DD/MM/YYYY."
    },
    {
      "name": "supplier_name",
      "to": "supplier_name",
      "type_to": "string",
      "type": "string",
      "nullable": false,
      "format": "",
      "optional": false,
      "pii": "nc",
      "length": 200,
      "tags": "",
      "enum": [],
      "description": "Hive dynamic partition column, must be the last column in the schema. Name of supplier - if a licensed supplier partners with one or more white label providers, these should be identified separately from the parent."
    }
  ],
  "conditional_validation": [
    {
      "name": "if 'is_multi_reg_tariff' is Y - then 'multi_reg_period_1_unit_rate' should be greater than 0, and 'multi_reg_period_2_unit_rate' should be greater than 0, and 'single_rate_unit_rate' must be blank",
      "expressions": {
        "if": [{"column": "is_multi_reg_tariff", "value": "True", "operator": "==" },
          {"column": "is_multi_tier_tariff", "value": "False", "operator": "==" }],
        "then": [{"column": "multi_reg_period_1_unit_rate", "value": "0", "operator": ">"},
          {"column": "multi_reg_period_2_unit_rate", "value": "0", "operator": ">"},
          {"column": "single_rate_unit_rate", "value": "", "operator": "=="} ]
      }
    },
    {
      "name": "if 'is_multi_tier_tariff' is Y - then 'multi_tier_unit_rate_1' should be greater than 0, and 'multi_tier_unit_rate_2' should be greater than 0, and 'multi_tier_volume_break_1' must not be blank, and 'multi_tier_volume_break_1_uom' must not be blank, and 'single_rate_unit_rate' must be blank",
      "expressions": {
        "if": [{"column": "is_multi_tier_tariff", "value": "True", "operator": "=="}],
        "then": [{"column": "single_rate_unit_rate", "value": "", "operator": "=="},
          {"column": "multi_tier_unit_rate_1", "value": "0", "operator": ">"},
          {"column": "multi_tier_unit_rate_2", "value": "0", "operator": ">"},
          {"column": "multi_tier_volume_break_1", "value": "", "operator": "!="},
          {"column": "multi_tier_volume_break_1_uom", "value": "", "operator": "!="}
        ]
      }
    },
    {
      "name": "if 'is_multi_tier_tariff' is Y and 'is_multi_reg_tariff' is Y - then 'multi_tier_unit_rate_1' should be greater than 0, and 'multi_tier_unit_rate_2' should be greater than 0, and 'multi_tier_volume_break_1' must not be blank, and 'multi_tier_volume_break_1_uom' must not be blank, and 'multi_tier_unit_rate_op' must be greater than 0, and assumed_consumption_split_1 must be greater than 0, and 'single_rate_unit_rate' must be blank",
      "expressions": {
        "if": [{"column": "is_multi_tier_tariff", "value": "True", "operator": "=="},
          {"column": "is_multi_reg_tariff", "value": "True", "operator": "=="}],
        "then": [{"column": "single_rate_unit_rate", "value": "", "operator": "=="},
          {"column": "multi_tier_unit_rate_1", "value": "0", "operator": ">"},
          {"column": "multi_tier_unit_rate_2", "value": "0", "operator": ">"},
          {"column": "multi_tier_unit_rate_op", "value": "0", "operator": ">"},
          {"column": "multi_tier_volume_break_1", "value": "", "operator": "!="},
          {"column": "multi_tier_volume_break_1_uom", "value": "", "operator": "!="},
          {"column": "assumed_consumption_split_1", "value": "0", "operator": ">"}
        ]
      }
    },   
    {
      "name": "if 'is_multi_reg_tariff' is N, and 'is_multi_tier_tariff' is N - then 'single_rate_unit_rate' must not be blank",
      "expressions": {"if": [{"column": "is_multi_reg_tariff", "value": "False", "operator": "=="},
        {"column": "is_multi_tier_tariff", "value": "False", "operator": "=="}],
        "then": [{"column": "single_rate_unit_rate", "value": "", "operator": "!="}]}
    },
    {
      "name":  "if 'is_multi_reg_tariff' is Y - then 'assumed_consumption_split_1' should be greater than 0, and 'assumed_consumption_split_2' should be greater than 0",
      "expressions": {"if": [{"column": "is_multi_reg_tariff", "value": "True", "operator": "=="}],
        "then": [{"column": "assumed_consumption_split_1", "value": "0", "operator": ">"},
          {"column": "assumed_consumption_split_2", "value": "0", "operator": ">"}]}
    },
    {
      "name": "if 'meter_type' is E - then 'is_multi_reg_tariff' must be Y",
     "expressions": {"if": [{"column": "meter_type", "value": "E", "operator": "=="}],
       "then": [{"column": "is_multi_reg_tariff", "value":"True", "operator": "=="}]}
    },
    {
      "name": "if 'meter_type' is T - then 'is_multi_reg_tariff' must be Y",
     "expressions": {"if": [{"column": "meter_type", "value": "T", "operator": "=="}],
       "then": [{"column": "is_multi_reg_tariff", "value": "True", "operator": "=="}]}
    },
    {"name": "if 'meter_type' is E - then 'assumed_consumtion_split_1' must be 0.58, and 'assumed_consumption_split_2' must be 0.42 - unless stated otherwise to Ofgem",
      "expressions": {"if": [{"column": "meter_type", "value": "E", "operator": "=="}],
        "then": [{"column": "assumed_consumption_split_1", "value": "0.58", "operator": "=="},
          {"column": "assumed_consumption_split_2", "value": "0.42", "operator": "=="}]}
    },
    {"name": "if 'tariff_advertised_name' is 'Standard' - then 'tariff_type' is expected to be 'S' - [note that this may not strictly hold true, depending on how the tariffs are labelled]",
      "expressions": {"if": [{"column": "tariff_advertised_name", "value": "standard", "operator": "=="}],
        "then": [{"column": "tariff_type", "value": "S", "operator": "=="}]}
    },
    {"name": "if 'tariff_advertised_name' is 'Default' - then 'tariff_type' is expected to be 'D' - [note that this may not strictly hold true, depending on how the tariffs are labelled]",
      "expressions": {"if": [{"column": "tariff_advertised_name", "value": "default", "operator": "=="}],
        "then": [{"column": "tariff_type", "value": "D", "operator": "=="}]}
    },
    {"name": "if 'is_tou_tariff' is Y - then 'meter_type' must be S, and 'is_multi_reg_tariff' must be Y",
     "expressions": {"if": [{"column": "is_tou_tariff", "value": "True", "operator": "=="}],
       "then": [{"column": "meter_type", "value": "S", "operator": "=="},
                {"column": "is_multi_reg_tariff", "value": "True", "operator": "=="}]}
    },
    {"name":  "if 'tariff_type' is F - then 'termination_fee' must be greater than or equal to 0", 
      "expressions": {"if": [{"column": "tariff_type", "value": "F", "operator": "=="}],
        "then": [{"column": "termination_fee", "value": "", "operator": "!="},
            {"column": "termination_fee", "value":"0", "operator": ">="}]}
    },   
    {"name": "The expected date is 01/10/2022.  If the current date inputted is out by only a few days, please proceed to submission otherwise amend this date prior to submitting.",
     "expressions": {"if": [{"column": "date", "value": "01/10/2022", "operator": "!="}],
       "then": [{"column": "date", "value": "01/10/2022", "operator": "=="}]}
    }
  ]
}

